<svg width="16" height="16" viewBox="0 0 16 16" fill="none" xmlns="http://www.w3.org/2000/svg">
<path d="M3 4V12C3 13.1046 3.89543 14 5 14H11C12.1046 14 13 13.1046 13 12V5L10 2H5C3.89543 2 3 2.89543 3 4Z" stroke="#EBDBB2" stroke-width="2"/>
<path d="M9.5 2V5.5H13.5" stroke="#EBDBB2"/>
<path d="M5 11.5H10M5 9.5H11M5 7.5H7" stroke="#928374"/>
</svg>
