<svg width="16" height="16" viewBox="0 0 16 16" fill="none" xmlns="http://www.w3.org/2000/svg">
<path d="M12 14H4C2.89543 14 2 13.1046 2 12V3H7L9 5H14V12C14 13.1046 13.1046 14 12 14Z" stroke="#EBDBB2" stroke-width="2"/>
<path d="M2 5.5H9.5" stroke="#EBDBB2"/>
</svg>
