<svg width="16" height="16" viewBox="0 0 16 16" fill="none" xmlns="http://www.w3.org/2000/svg">
<path d="M9 10L11 12L13 10C14.1046 8.89543 14.1046 7.10457 13 6C11.8954 4.89543 10.1046 4.89543 9 6C7.89543 7.10457 7.89543 8.89543 9 10Z" stroke="#FABD2F" stroke-width="2" stroke-linejoin="round"/>
<path fill-rule="evenodd" clip-rule="evenodd" d="M7 13V12H4V13H7ZM3 12C2.44772 12 2 11.5523 2 11H1C1 12.1046 1.89543 13 3 13V12ZM2 10H1C1 8.89543 1.89543 8 3 8V9C2.44772 9 2 9.44772 2 10ZM4 8C4.55228 8 5 7.55228 5 7H6C6 8.10457 5.10457 9 4 9V8ZM4 4C5.10457 4 6 4.89543 6 6H5C5 5.44772 4.55228 5 4 5V4ZM3 5H1V4H3V5Z" fill="#EBDBB2"/>
</svg>
