<svg width="16" height="16" viewBox="0 0 16 16" fill="none" xmlns="http://www.w3.org/2000/svg">
<path d="M5 11L2 8L5 5M11 11L14 8L11 5" stroke="#EBDBB2" stroke-width="2" stroke-linecap="round" stroke-linejoin="round"/>
<path d="M9.5 2.5L6.5 13.5" stroke="#D3869B" stroke-linecap="round" stroke-linejoin="round"/>
</svg>
